{
    "page": 2,
    "total_results": 10000,
    "total_pages": 500,
    "results": [
        {
            "popularity": 74.704,
            "vote_count": 9537,
            "video": false,
            "poster_path": "\/kOVEVeg59E0wsnXmF9nrh6OmWII.jpg",
            "id": 181808,
            "adult": false,
            "backdrop_path": "\/5Iw7zQTHVRBOYpA0V6z0yypOPZh.jpg",
            "original_language": "en",
            "original_title": "Star Wars: The Last Jedi",
            "genre_ids": [
                28,
                12,
                14,
                878
            ],
            "title": "Star Wars: The Last Jedi",
            "vote_average": 7,
            "overview": "Rey develops her newly discovered abilities with the guidance of Luke Skywalker, who is unsettled by the strength of her powers. Meanwhile, the Resistance prepares to do battle with the First Order.",
            "release_date": "2017-12-13"
        },
        {
            "popularity": 84.542,
            "vote_count": 1752,
            "video": false,
            "poster_path": "\/mbm8k3GFhXS0ROd9AD1gqYbIFbM.jpg",
            "id": 398978,
            "adult": false,
            "backdrop_path": "\/ww5aGS5H2tUtckxFFNOJE2790S7.jpg",
            "original_language": "en",
            "original_title": "The Irishman",
            "genre_ids": [
                80,
                18,
                36
            ],
            "title": "The Irishman",
            "vote_average": 7.9,
            "overview": "Pennsylvania, 1956. Frank Sheeran, a war veteran of Irish origin who works as a truck driver, accidentally meets mobster Russell Bufalino. Once Frank becomes his trusted man, Bufalino sends him to Chicago with the task of helping Jimmy Hoffa, a powerful union leader related to organized crime, with whom Frank will maintain a close friendship for nearly twenty years.",
            "release_date": "2019-11-01"
        },
        {
            "popularity": 120.516,
            "vote_count": 8499,
            "video": false,
            "poster_path": "\/jpfkzbIXgKZqCZAkEkFH2VYF63s.jpg",
            "id": 920,
            "adult": false,
            "backdrop_path": "\/a1MlbLBk5Sy6YvMbSuKfwGlDVlb.jpg",
            "original_language": "en",
            "original_title": "Cars",
            "genre_ids": [
                12,
                16,
                35,
                10751
            ],
            "title": "Cars",
            "vote_average": 6.7,
            "overview": "Lightning McQueen, a hotshot rookie race car driven to succeed, discovers that life is about the journey, not the finish line, when he finds himself unexpectedly detoured in the sleepy Route 66 town of Radiator Springs. On route across the country to the big Piston Cup Championship in California to compete against two seasoned pros, McQueen gets to know the town's offbeat characters.",
            "release_date": "2006-06-08"
        },
        {
            "popularity": 52.141,
            "vote_count": 15735,
            "video": false,
            "poster_path": "\/56zTpe2xvaA4alU51sRWPoKPYZy.jpg",
            "id": 120,
            "adult": false,
            "backdrop_path": "\/pIUvQ9Ed35wlWhY2oU6OmwEsmzG.jpg",
            "original_language": "en",
            "original_title": "The Lord of the Rings: The Fellowship of the Ring",
            "genre_ids": [
                28,
                12,
                14
            ],
            "title": "The Lord of the Rings: The Fellowship of the Ring",
            "vote_average": 8.3,
            "overview": "Young hobbit Frodo Baggins, after inheriting a mysterious ring from his uncle Bilbo, must leave his home in order to keep it from falling into the hands of its evil creator. Along the way, a fellowship is formed to protect the ringbearer and make sure that the ring arrives at its final destination: Mt. Doom, the only place where it can be destroyed.",
            "release_date": "2001-12-18"
        },
        {
            "popularity": 71.547,
            "vote_count": 10661,
            "video": false,
            "poster_path": "\/or06FN3Dka5tukK1e9sl16pB3iy.jpg",
            "id": 299534,
            "adult": false,
            "backdrop_path": "\/7RyHsO4yDXtBv1zUU3mTpHeQ0d5.jpg",
            "original_language": "en",
            "original_title": "Avengers: Endgame",
            "genre_ids": [
                28,
                12,
                878
            ],
            "title": "Avengers: Endgame",
            "vote_average": 8.3,
            "overview": "After the devastating events of Avengers: Infinity War, the universe is in ruins due to the efforts of the Mad Titan, Thanos. With the help of remaining allies, the Avengers must assemble once more in order to undo Thanos' actions and restore order to the universe once and for all, no matter what consequences may be in store.",
            "release_date": "2019-04-24"
        },
        {
            "popularity": 104.511,
            "vote_count": 2280,
            "video": false,
            "poster_path": "\/kvpNZAQow5es1tSY6XW2jAZuPPG.jpg",
            "id": 384018,
            "adult": false,
            "backdrop_path": "\/qAhedRxRYWZAgZ8O8pHIl6QHdD7.jpg",
            "original_language": "en",
            "original_title": "Fast & Furious Presents: Hobbs & Shaw",
            "genre_ids": [
                28,
                12,
                35
            ],
            "title": "Fast & Furious Presents: Hobbs & Shaw",
            "vote_average": 6.6,
            "overview": "Ever since US Diplomatic Security Service Agent Hobbs and lawless outcast Shaw first faced off, they just have swapped smacks and bad words. But when cyber-genetically enhanced anarchist Brixton's ruthless actions threaten the future of humanity, both join forces to defeat him. (A spin-off of “The Fate of the Furious,” focusing on Johnson's Luke Hobbs and Statham's Deckard Shaw.)",
            "release_date": "2019-08-01"
        },
        {
            "popularity": 52.29,
            "vote_count": 24034,
            "video": false,
            "poster_path": "\/qmDpIHrmpJINaRKAfWQfftjCdyi.jpg",
            "id": 27205,
            "adult": false,
            "backdrop_path": "\/s2bT29y0ngXxxu2IA8AOzzXTRhd.jpg",
            "original_language": "en",
            "original_title": "Inception",
            "genre_ids": [
                28,
                12,
                878
            ],
            "title": "Inception",
            "vote_average": 8.3,
            "overview": "Cobb, a skilled thief who commits corporate espionage by infiltrating the subconscious of his targets is offered a chance to regain his old life as payment for a task considered to be impossible: \"inception\", the implantation of another person's idea into a target's subconscious.",
            "release_date": "2010-07-15"
        }
    ]
}